{"data":[{"id":183,"name":"150 PIEZAS DE PAPEL FREIDORA AIRE DE 5 A 6,5L","default_code":"03291","list_price":8.0,"categ_id":45,"active":true,"type":"consu","external_id":null,"standard_price":5.22,"barcode":null,"weight":0.0,"sale_ok":true,"purchase_ok":true,"available_in_pos":true,"to_weight":false,"is_published":true,"website_sequence":1,"description_sale":"","description_purchase":"","sales_description":null,"seller_ids":[175],"product_tag_ids":[16],"public_categ_ids":[3],"pos_categ_ids":[],"taxes_id":[50],"supplier_taxes_id":[52],"qty_available":null,"code":"03291","price":8.0,"category":"Freidoras","stock":0,"image_url":null,"product_name":null,"location":null,"last_updated":null},{"id":225,"name":"1 SARTEN POLKA 18 (NEGRO MANGO TURQUESA)","default_code":"03167","list_price":15.0,"categ_id":11,"active":true,"type":"consu","external_id":null,"standard_price":8.45,"barcode":null,"weight":0.0,"sale_ok":true,"purchase_ok":true,"available_in_pos":true,"to_weight":false,"is_published":true,"website_sequence":1,"description_sale":"","description_purchase":"","sales_description":null,"seller_ids":[217],"product_tag_ids":[],"public_categ_ids":[],"pos_categ_ids":[],"taxes_id":[50],"supplier_taxes_id":[52],"qty_available":null,"code":"03167","price":15.0,"category":"Otros Electrodomésticos","stock":0,"image_url":null,"product_name":null,"location":null,"last_updated":null},{"id":65,"name":"A/A PORTATIL  + CALEFACCION","default_code":"ADR97","list_price":230.0,"categ_id":38,"active":true,"type":"consu","external_id":null,"standard_price":177.6,"barcode":null,"weight":0.0,"sale_ok":true,"purchase_ok":true,"available_in_pos":true,"to_weight":false,"is_published":true,"website_sequence":1,"description_sale":"","description_purchase":"","sales_description":null,"seller_ids":[57],"product_tag_ids":[13,14,15],"public_categ_ids":[],"pos_categ_ids":[],"taxes_id":[50],"supplier_taxes_id":[52],"qty_available":null,"code":"ADR97","price":230.0,"category":"Aire Acondicionado","stock":2,"image_url":null,"product_name":null,"location":null,"last_updated":null},{"id":64,"name":"A/A PORTATIL + CALEFACCION","default_code":"ADR128","list_price":330.0,"categ_id":38,"active":true,"type":"consu","external_id":null,"standard_price":265.8,"barcode":null,"weight":0.0,"sale_ok":true,"purchase_ok":true,"available_in_pos":true,"to_weight":false,"is_published":true,"website_sequence":1,"description_sale":"","description_purchase":"","sales_description":null,"seller_ids":[56],"product_tag_ids":[],"public_categ_ids":[],"pos_categ_ids":[3],"taxes_id":[50],"supplier_taxes_id":[52],"qty_available":null,"code":"ADR128","price":330.0,"category":"Aire Acondicionado","stock":0,"image_url":null,"product_name":null,"location":null,"last_updated":null},{"id":184,"name":"ACCESORIOS FREIDORA AIRE","default_code":"03341","list_price":8.0,"categ_id":45,"active":true,"type":"consu","external_id":null,"standard_price":3.82,"barcode":null,"weight":0.0,"sale_ok":true,"purchase_ok":true,"available_in_pos":true,"to_weight":false,"is_published":true,"website_sequence":1,"description_sale":"","description_purchase":"","sales_description":null,"seller_ids":[176],"product_tag_ids":[16],"public_categ_ids":[],"pos_categ_ids":[],"taxes_id":[50],"supplier_taxes_id":[52],"qty_available":null,"code":"03341","price":8.0,"category":"Freidoras","stock":0,"image_url":null,"product_name":null,"location":null,"last_updated":null},{"id":1035,"name":"ACEITERA SPRAY 15CL","default_code":"HACC4545","list_price":6.0,"categ_id":11,"active":true,"type":"consu","external_id":null,"standard_price":2.56,"barcode":null,"weight":0.0,"sale_ok":true,"purchase_ok":true,"available_in_pos":true,"to_weight":false,"is_published":true,"website_sequence":11455,"description_sale":"","description_purchase":"","sales_description":null,"seller_ids":[503],"product_tag_ids":[],"public_categ_ids":[],"pos_categ_ids":[],"taxes_id":[50],"supplier_taxes_id":[52],"qty_available":null,"code":"HACC4545","price":6.0,"category":"Otros Electrodomésticos","stock":0,"image_url":null,"product_name":null,"location":null,"last_updated":null},{"id":1034,"name":"ACEITERA SPRAY 15CL","default_code":"HACC4539","list_price":12.0,"categ_id":11,"active":true,"type":"consu","external_id":null,"standard_price":6.53,"barcode":null,"weight":0.0,"sale_ok":true,"purchase_ok":true,"available_in_pos":true,"to_weight":false,"is_published":true,"website_sequence":11450,"description_sale":"","description_purchase":"","sales_description":null,"seller_ids":[502],"product_tag_ids":[],"public_categ_ids":[],"pos_categ_ids":[],"taxes_id":[50],"supplier_taxes_id":[52],"qty_available":null,"code":"HACC4539","price":12.0,"category":"Otros Electrodomésticos","stock":0,"image_url":null,"product_name":null,"location":null,"last_updated":null},{"id":240,"name":"ACEITERA SPRAY POLKA ","default_code":"03260","list_price":8.0,"categ_id":7,"active":true,"type":"consu","external_id":null,"standard_price":3.82,"barcode":null,"weight":0.0,"sale_ok":true,"purchase_ok":true,"available_in_pos":true,"to_weight":false,"is_published":true,"website_sequence":1,"description_sale":"","description_purchase":"","sales_description":null,"seller_ids":[232],"product_tag_ids":[],"public_categ_ids":[],"pos_categ_ids":[],"taxes_id":[50],"supplier_taxes_id":[52],"qty_available":null,"code":"03260","price":8.0,"category":"Aires Acondicionados","stock":0,"image_url":null,"product_name":null,"location":null,"last_updated":null},{"id":177,"name":"AFEITADORA DE CABEZA","default_code":"04443","list_price":29.0,"categ_id":11,"active":true,"type":"consu","external_id":null,"standard_price":16.63,"barcode":null,"weight":0.0,"sale_ok":true,"purchase_ok":true,"available_in_pos":true,"to_weight":false,"is_published":true,"website_sequence":1,"description_sale":"","description_purchase":"","sales_description":null,"seller_ids":[169],"product_tag_ids":[],"public_categ_ids":[],"pos_categ_ids":[],"taxes_id":[50],"supplier_taxes_id":[52],"qty_available":null,"code":"04443","price":29.0,"category":"Otros Electrodomésticos","stock":0,"image_url":null,"product_name":null,"location":null,"last_updated":null},{"id":917,"name":"AFEITADORA PHILIPS","default_code":"QP2721","list_price":40.0,"categ_id":11,"active":true,"type":"consu","external_id":null,"standard_price":27.06,"barcode":null,"weight":0.0,"sale_ok":true,"purchase_ok":true,"available_in_pos":true,"to_weight":false,"is_published":true,"website_sequence":10865,"description_sale":"","description_purchase":"","sales_description":null,"seller_ids":[385],"product_tag_ids":[17],"public_categ_ids":[],"pos_categ_ids":[],"taxes_id":[50],"supplier_taxes_id":[52],"qty_available":null,"code":"QP2721","price":40.0,"category":"Otros Electrodomésticos","stock":0,"image_url":null,"product_name":null,"location":null,"last_updated":null}],"total":559,"page":1,"size":10,"pages":56}